Data Wrangling with dplyr | KHstats
…
summarise(iris, sd_pl = sd(Petal.Length), var_pl = sd(Petal.Length)^2)

##      sd_pl   var_pl
## 1 1.765298 3.116278

group_by()

Invisibly groups data by specified column(s)

Use with other verbs to get grouped information

iris %>% group_by(Species) 

## # A tibble: 150 x 5
## # Groups:   Species [3]
##    Sepal.Length Sepal.Width Petal.Length Petal.Width Species
##           <dbl>       <dbl>        <dbl>       <dbl> <fct>  
##  1          5.1         3.5          1.4         0.2 setosa 
##  2          4.9         3            1.4         0.2 setosa 
##  3          4.7         3.2          1.3         0.2 setosa 
##  4          4.6         3.1          1.5         0.2 setosa 
##  5          5           3.6          1.4         0.2 setosa 
##  6          5.4         3.9          1.7         0.4 setosa 
##  7          4.6         3.4          1.4         0.3 setosa 
##  8          5           3.4          1.5         0.2 setosa 
##  9          4.4         2.9          1.4         0.2 setosa 
## 10          4.9         3.1          1.5         0.1 setosa 
## # … with 140 more rows
…
# z scores by Species for all numeric variables
iris %>% group_by(Species) %>%
  mutate_if(.predicate = is.numeric, .funs = funs(scale))

## # A tibble: 150 x 5
## # Groups:   Species [3]
##    Sepal.Length Sepal.Width Petal.Length Petal.Width Species
##           <dbl>       <dbl>        <dbl>       <dbl> <fct>  
##  1       0.267       0.190        -0.357      -0.436 setosa 
##  2      -0.301      -1.13         -0.357      -0.436 setosa 
##  3      -0.868      -0.601        -0.933      -0.436 setosa 
##  4      -1.15       -0.865         0.219      -0.436 setosa 
##  5      -0.0170      0.454        -0.357      -0.436 setosa 
##  6       1.12        1.25          1.37        1.46  setosa 
##  7      -1.15       -0.0739       -0.357       0.512 setosa 
##  8      -0.0170     -0.0739        0.219      -0.436 setosa 
##  9      -1.72       -1.39         -0.357      -0.436 setosa 
## 10      -0.301      -0.865         0.219      -1.39  setosa 
## # … with 140 more rows
…
brain %>%
  group_by(ID) %>%
  transmute(PIB_Parietal = mean(c(PIB.PET_AAL__Parietal_Inf_L,
                                  PIB.PET_AAL__Parietal_Inf_R,
                                  PIB.PET_AAL__Parietal_Sup_L,
                                  PIB.PET_AAL__Parietal_Sup_R), na.rm=T)) %>%
  arrange(PIB_Parietal)

## # A tibble: 21 x 2
## # Groups:   ID [21]
##       ID PIB_Parietal
##    <int>        <dbl>
##  1   620         487.
##  2   271        2388.
##  3   513        2970.
##  4   537        3171.
##  5   636        3480.
##  6   293        3685.
##  7   236        4056.
##  8   681        4576.
##  9   145        4936.
## 10   611        5106.
## # … with 11 more rows
…
meds %>%
    group_by(PatientID) %>%
    complete(Months_ImplantToVisit = full_seq(1:max(Months_ImplantToVisit), 1)) %>%
    fill(ends_with("_yn")) %>%
    fill(ends_with("_yn"), .direction="up") -> meds1
meds1

## # A tibble: 6,486 x 5
## # Groups:   PatientID [220]
##    PatientID Months_ImplantToVisit BB_yn ACE_yn ARB_yn
##        <int>                 <dbl> <fct> <fct>  <fct> 
##  1         1                     1 0     0      0     
##  2         1                     2 0     0      0     
##  3         2                     1 0     1      0     
##  4         2                     2 0     1      0     
##  5         2                     3 0     1      0     
##  6         2                     4 0     1      0     
##  7         2                     5 0     1      0     
##  8         2                     6 1     1      0     
##  9         2                     7 1     1      0     
## 10         2                     8 1     1      0     
## # … with 6,476 more rows

meds1 %>%
  mutate_at(.vars = vars(ends_with("_yn")),
              .funs = funs(prev = lag(., order_by = Months_ImplantToVisit))) %>%
    fill(ends_with("_prev"), .direction="up")

## # A tibble: 6,486 x 8
## # Groups:   PatientID [220]
##    PatientID Months_ImplantT… BB_yn ACE_yn ARB_yn BB_yn_prev ACE_yn_prev
##        <int>            <dbl> <fct> <fct>  <fct>  <fct>      <fct>      
##  1         1                1 0     0      0      0          0          
##  2         1                2 0     0      0      0          0          
##  3         2                1 0     1      0      0          1          
##  4         2                2 0     1      0      0          1          
##  5         2                3 0     1      0      0          1          
##  6         2                4 0     1      0      0          1          
##  7         2                5 0     1      0      0          1          
##  8         2                6 1     1      0      0          1          
##  9         2                7 1     1      0      1          1          
## 10         2                8 1     1      0      1          1          
## # … with 6,476 more rows, and 1 more variable: ARB_yn_prev <fct>
…
dems_clean

## Source: local data frame [265 x 55]
## Groups: <by row>
## 
## # A tibble: 265 x 55
##    FUorFEtime FUorFEstatus Event_yn PatientID Year.of.Implant Outcome
##         <dbl> <chr>           <dbl>     <int>           <int>   <int>
##  1         94 stroke              1         1            2016       2
##  2        141 pt                  1         2            2016       7
##  3        185 censored            0         3            2016       7
##  4        139 censored            0         4            2016       6
##  5         78 gib                 1         5            2016       7
##  6        161 censored            0         6            2016       1
##  7        185 stroke              1         7            2016       7
##  8        233 censored            0         8            2016       7
##  9        239 censored            0         9            2016       7
## 10        243 censored            0        10            2016       7
## # … with 255 more rows, and 49 more variables: Days.to.lastFU <int>,
## #   Stroke <int>, Days.to.stroke <int>, TypeStroke <int>, Stroke_IA <int>,
## #   Days.to.IA.stroke <int>, TypeStroke_IA <int>, PT <int>,
## #   Days.to.PT <int>, GIB <int>, Days.to.GIB <int>, GIB_IA <int>,
## #   Days.to.GIB_IA <int>, Age.at.implant <int>, Sex <fct>, Race <int>,
## #   Caucasian <int>, AfibFlut <fct>, Smoking_Hx <fct>, DM <fct>,
## #   Ischemic <int>, HTN_Hx <fct>, Stroke_Hx <fct>, Pulmonary_Hx <fct>,
## #   ICD <fct>, IMCS <int>, DT <int>, Hb_pre <dbl>, PLT_pre <int>,
## #   INR_dx <dbl>, Creat_dx <dbl>, Height <dbl>, Weight <dbl>, BMI <dbl>,
…
