Data Wrangling with dplyr | KHstats
…
glimpse(iris)

## Observations: 150
## Variables: 5
## $ Sepal.Length <dbl> 5.1, 4.9, 4.7, 4.6, 5.0, 5.4, 4.6, 5.0, 4.4, 4.9, 5…
## $ Sepal.Width  <dbl> 3.5, 3.0, 3.2, 3.1, 3.6, 3.9, 3.4, 3.4, 2.9, 3.1, 3…
## $ Petal.Length <dbl> 1.4, 1.4, 1.3, 1.5, 1.4, 1.7, 1.4, 1.5, 1.4, 1.5, 1…
## $ Petal.Width  <dbl> 0.2, 0.2, 0.2, 0.2, 0.2, 0.4, 0.3, 0.2, 0.2, 0.1, 0…
## $ Species      <fct> setosa, setosa, setosa, setosa, setosa, setosa, set…

iris <- tbl_df(iris) # turn iris into a tibble data frame so it doesn't print all 150 rows
iris

## # A tibble: 150 x 5
##    Sepal.Length Sepal.Width Petal.Length Petal.Width Species
##           <dbl>       <dbl>        <dbl>       <dbl> <fct>  
##  1          5.1         3.5          1.4         0.2 setosa 
##  2          4.9         3            1.4         0.2 setosa 
##  3          4.7         3.2          1.3         0.2 setosa 
##  4          4.6         3.1          1.5         0.2 setosa 
##  5          5           3.6          1.4         0.2 setosa 
##  6          5.4         3.9          1.7         0.4 setosa 
##  7          4.6         3.4          1.4         0.3 setosa 
##  8          5           3.4          1.5         0.2 setosa 
##  9          4.4         2.9          1.4         0.2 setosa 
## 10          4.9         3.1          1.5         0.1 setosa 
## # … with 140 more rows
…
Shortcut for %>% is CTRL + SHIFT + M (or CMD + SHIFT + M for OSX)

A verb is a function that takes a data frame as the first argument, eg. head()

The entire tidyverse suite operates under this verb function structure, making piping especially convenient

Main verbs

arrange()

Sort data frame by column(s), lowest to highest

arrange(iris, Petal.Length) 

## # A tibble: 150 x 5
##    Sepal.Length Sepal.Width Petal.Length Petal.Width Species
##           <dbl>       <dbl>        <dbl>       <dbl> <fct>  
##  1          4.6         3.6          1           0.2 setosa 
##  2          4.3         3            1.1         0.1 setosa 
##  3          5.8         4            1.2         0.2 setosa 
##  4          5           3.2          1.2         0.2 setosa 
##  5          4.7         3.2          1.3         0.2 setosa 
##  6          5.4         3.9          1.3         0.4 setosa 
##  7          5.5         3.5          1.3         0.2 setosa 
##  8          4.4         3            1.3         0.2 setosa 
##  9          5           3.5          1.3         0.3 setosa 
## 10          4.5         2.3          1.3         0.3 setosa 
## # … with 140 more rows

If you specify a variable of class factor or character, you will rearrange the rows to alphabetical order

Use desc() if you want the opposite order

arrange(iris, desc(Species), # sort z to a since species is a factor
        Sepal.Width)  

## # A tibble: 150 x 5
##    Sepal.Length Sepal.Width Petal.Length Petal.Width Species  
##           <dbl>       <dbl>        <dbl>       <dbl> <fct>    
##  1          6           2.2          5           1.5 virginica
##  2          4.9         2.5          4.5         1.7 virginica
##  3          6.7         2.5          5.8         1.8 virginica
##  4          5.7         2.5          5           2   virginica
##  5          6.3         2.5          5           1.9 virginica
##  6          7.7         2.6          6.9         2.3 virginica
##  7          6.1         2.6          5.6         1.4 virginica
##  8          5.8         2.7          5.1         1.9 virginica
##  9          6.4         2.7          5.3         1.9 virginica
## 10          6.3         2.7          4.9         1.8 virginica
## # … with 140 more rows

mutate()

Add a new variable (while preserving all existing variables)

mutate(iris, logSepLength = log(Sepal.Length)) 

## # A tibble: 150 x 6
##    Sepal.Length Sepal.Width Petal.Length Petal.Width Species logSepLength
##           <dbl>       <dbl>        <dbl>       <dbl> <fct>          <dbl>
##  1          5.1         3.5          1.4         0.2 setosa          1.63
##  2          4.9         3            1.4         0.2 setosa          1.59
##  3          4.7         3.2          1.3         0.2 setosa          1.55
##  4          4.6         3.1          1.5         0.2 setosa          1.53
##  5          5           3.6          1.4         0.2 setosa          1.61
##  6          5.4         3.9          1.7         0.4 setosa          1.69
##  7          4.6         3.4          1.4         0.3 setosa          1.53
##  8          5           3.4          1.5         0.2 setosa          1.61
##  9          4.4         2.9          1.4         0.2 setosa          1.48
## 10          4.9         3.1          1.5         0.1 setosa          1.59
## # … with 140 more rows

mutate(iris, Petals_long = ifelse(Petal.Length > 1.4, 1, 0)) 

## # A tibble: 150 x 6
##    Sepal.Length Sepal.Width Petal.Length Petal.Width Species Petals_long
##           <dbl>       <dbl>        <dbl>       <dbl> <fct>         <dbl>
##  1          5.1         3.5          1.4         0.2 setosa            0
##  2          4.9         3            1.4         0.2 setosa            0
##  3          4.7         3.2          1.3         0.2 setosa            0
##  4          4.6         3.1          1.5         0.2 setosa            1
##  5          5           3.6          1.4         0.2 setosa            0
##  6          5.4         3.9          1.7         0.4 setosa            1
##  7          4.6         3.4          1.4         0.3 setosa            0
##  8          5           3.4          1.5         0.2 setosa            1
##  9          4.4         2.9          1.4         0.2 setosa            0
## 10          4.9         3.1          1.5         0.1 setosa            1
## # … with 140 more rows

There’s also transmute() which deletes the old column(s) you use to make the new column

iris %>% transmute(Length_diff = Sepal.Length - Petal.Length,
                   Width_diff = Sepal.Width - Petal.Width) 

## # A tibble: 150 x 2
##    Length_diff Width_diff
##          <dbl>      <dbl>
##  1        3.7        3.3 
##  2        3.5        2.8 
##  3        3.4        3   
##  4        3.10       2.9 
##  5        3.6        3.4 
##  6        3.7        3.5 
##  7        3.20       3.1 
##  8        3.5        3.20
##  9        3.         2.70
## 10        3.4        3   
## # … with 140 more rows

filter()

Return rows matching specified conditions

Use with >, >=, <, <=, |, !, %in%, ==, and !=. Separating conditions by , represents the & argument.

iris %>% filter(Sepal.Length >= 2) 

## # A tibble: 150 x 5
##    Sepal.Length Sepal.Width Petal.Length Petal.Width Species
##           <dbl>       <dbl>        <dbl>       <dbl> <fct>  
##  1          5.1         3.5          1.4         0.2 setosa 
##  2          4.9         3            1.4         0.2 setosa 
##  3          4.7         3.2          1.3         0.2 setosa 
##  4          4.6         3.1          1.5         0.2 setosa 
##  5          5           3.6          1.4         0.2 setosa 
##  6          5.4         3.9          1.7         0.4 setosa 
##  7          4.6         3.4          1.4         0.3 setosa 
##  8          5           3.4          1.5         0.2 setosa 
##  9          4.4         2.9          1.4         0.2 setosa 
## 10          4.9         3.1          1.5         0.1 setosa 
## # … with 140 more rows

iris %>% filter(Petal.Length >= mean(Petal.Length)) 

## # A tibble: 93 x 5
##    Sepal.Length Sepal.Width Petal.Length Petal.Width Species   
##           <dbl>       <dbl>        <dbl>       <dbl> <fct>     
##  1          7           3.2          4.7         1.4 versicolor
##  2          6.4         3.2          4.5         1.5 versicolor
##  3          6.9         3.1          4.9         1.5 versicolor
##  4          5.5         2.3          4           1.3 versicolor
##  5          6.5         2.8          4.6         1.5 versicolor
##  6          5.7         2.8          4.5         1.3 versicolor
##  7          6.3         3.3          4.7         1.6 versicolor
##  8          6.6         2.9          4.6         1.3 versicolor
##  9          5.2         2.7          3.9         1.4 versicolor
## 10          5.9         3            4.2         1.5 versicolor
## # … with 83 more rows

iris %>% filter(Species != "versicolor") 

## # A tibble: 100 x 5
##    Sepal.Length Sepal.Width Petal.Length Petal.Width Species
##           <dbl>       <dbl>        <dbl>       <dbl> <fct>  
##  1          5.1         3.5          1.4         0.2 setosa 
##  2          4.9         3            1.4         0.2 setosa 
##  3          4.7         3.2          1.3         0.2 setosa 
##  4          4.6         3.1          1.5         0.2 setosa 
##  5          5           3.6          1.4         0.2 setosa 
##  6          5.4         3.9          1.7         0.4 setosa 
##  7          4.6         3.4          1.4         0.3 setosa 
##  8          5           3.4          1.5         0.2 setosa 
##  9          4.4         2.9          1.4         0.2 setosa 
## 10          4.9         3.1          1.5         0.1 setosa 
## # … with 90 more rows

iris %>% filter(Species %in% c("versicolor", "setosa"))

## # A tibble: 100 x 5
##    Sepal.Length Sepal.Width Petal.Length Petal.Width Species
##           <dbl>       <dbl>        <dbl>       <dbl> <fct>  
##  1          5.1         3.5          1.4         0.2 setosa 
##  2          4.9         3            1.4         0.2 setosa 
##  3          4.7         3.2          1.3         0.2 setosa 
##  4          4.6         3.1          1.5         0.2 setosa 
##  5          5           3.6          1.4         0.2 setosa 
##  6          5.4         3.9          1.7         0.4 setosa 
##  7          4.6         3.4          1.4         0.3 setosa 
##  8          5           3.4          1.5         0.2 setosa 
##  9          4.4         2.9          1.4         0.2 setosa 
## 10          4.9         3.1          1.5         0.1 setosa 
## # … with 90 more rows

iris %>% filter(!(Species %in% c("versicolor", "setosa")))

## # A tibble: 50 x 5
##    Sepal.Length Sepal.Width Petal.Length Petal.Width Species  
##           <dbl>       <dbl>        <dbl>       <dbl> <fct>    
##  1          6.3         3.3          6           2.5 virginica
##  2          5.8         2.7          5.1         1.9 virginica
##  3          7.1         3            5.9         2.1 virginica
##  4          6.3         2.9          5.6         1.8 virginica
##  5          6.5         3            5.8         2.2 virginica
##  6          7.6         3            6.6         2.1 virginica
##  7          4.9         2.5          4.5         1.7 virginica
##  8          7.3         2.9          6.3         1.8 virginica
##  9          6.7         2.5          5.8         1.8 virginica
## 10          7.2         3.6          6.1         2.5 virginica
## # … with 40 more rows

select()

Keep only specified variables

select(iris, Sepal.Length, Sepal.Width) 

## # A tibble: 150 x 2
##    Sepal.Length Sepal.Width
##           <dbl>       <dbl>
##  1          5.1         3.5
##  2          4.9         3  
##  3          4.7         3.2
##  4          4.6         3.1
##  5          5           3.6
##  6          5.4         3.9
##  7          4.6         3.4
##  8          5           3.4
##  9          4.4         2.9
## 10          4.9         3.1
## # … with 140 more rows

Specify variables to exclude with -

select(iris, -Species) 

## # A tibble: 150 x 4
##    Sepal.Length Sepal.Width Petal.Length Petal.Width
##           <dbl>       <dbl>        <dbl>       <dbl>
##  1          5.1         3.5          1.4         0.2
##  2          4.9         3            1.4         0.2
##  3          4.7         3.2          1.3         0.2
##  4          4.6         3.1          1.5         0.2
##  5          5           3.6          1.4         0.2
##  6          5.4         3.9          1.7         0.4
##  7          4.6         3.4          1.4         0.3
##  8          5           3.4          1.5         0.2
##  9          4.4         2.9          1.4         0.2
## 10          4.9         3.1          1.5         0.1
## # … with 140 more rows

Select a range of variables with :

select(iris, Sepal.Length:Petal.Length) 

## # A tibble: 150 x 3
##    Sepal.Length Sepal.Width Petal.Length
##           <dbl>       <dbl>        <dbl>
##  1          5.1         3.5          1.4
##  2          4.9         3            1.4
##  3          4.7         3.2          1.3
##  4          4.6         3.1          1.5
##  5          5           3.6          1.4
##  6          5.4         3.9          1.7
##  7          4.6         3.4          1.4
##  8          5           3.4          1.5
##  9          4.4         2.9          1.4
## 10          4.9         3.1          1.5
## # … with 140 more rows
…
## # A tibble: 1 x 2
##   sd_pl var_pl
##   <dbl>  <dbl>
## 1  1.77   3.12

group_by()

Invisibly groups data by specified column(s)

Use with other verbs to get grouped information

iris %>% group_by(Species) 

## # A tibble: 150 x 5
## # Groups:   Species [3]
##    Sepal.Length Sepal.Width Petal.Length Petal.Width Species
##           <dbl>       <dbl>        <dbl>       <dbl> <fct>  
##  1          5.1         3.5          1.4         0.2 setosa 
##  2          4.9         3            1.4         0.2 setosa 
##  3          4.7         3.2          1.3         0.2 setosa 
##  4          4.6         3.1          1.5         0.2 setosa 
##  5          5           3.6          1.4         0.2 setosa 
##  6          5.4         3.9          1.7         0.4 setosa 
##  7          4.6         3.4          1.4         0.3 setosa 
##  8          5           3.4          1.5         0.2 setosa 
##  9          4.4         2.9          1.4         0.2 setosa 
## 10          4.9         3.1          1.5         0.1 setosa 
## # … with 140 more rows
…
Data will remain grouped until you use ungroup()

rename()

Give your columns new names. Syntax is newColumn = oldColumn.

iris %>% rename(sep_len = Sepal.Length) 

## # A tibble: 150 x 5
##    sep_len Sepal.Width Petal.Length Petal.Width Species
##      <dbl>       <dbl>        <dbl>       <dbl> <fct>  
##  1     5.1         3.5          1.4         0.2 setosa 
##  2     4.9         3            1.4         0.2 setosa 
##  3     4.7         3.2          1.3         0.2 setosa 
##  4     4.6         3.1          1.5         0.2 setosa 
##  5     5           3.6          1.4         0.2 setosa 
##  6     5.4         3.9          1.7         0.4 setosa 
##  7     4.6         3.4          1.4         0.3 setosa 
##  8     5           3.4          1.5         0.2 setosa 
##  9     4.4         2.9          1.4         0.2 setosa 
## 10     4.9         3.1          1.5         0.1 setosa 
## # … with 140 more rows
…
## # A tibble: 3 x 5
## # Groups:   Species [3]
##   Sepal.Length Sepal.Width Petal.Length Petal.Width Species   
##          <dbl>       <dbl>        <dbl>       <dbl> <fct>     
## 1          5           3.3          1.4         0.2 setosa    
## 2          5.7         2.8          4.1         1.3 versicolor
## 3          5.9         3            5.1         1.8 virginica

everything()

Move columns to the front of your data

select(iris, Species, everything()) 

## # A tibble: 150 x 5
##    Species Sepal.Length Sepal.Width Petal.Length Petal.Width
##    <fct>          <dbl>       <dbl>        <dbl>       <dbl>
##  1 setosa           5.1         3.5          1.4         0.2
##  2 setosa           4.9         3            1.4         0.2
##  3 setosa           4.7         3.2          1.3         0.2
##  4 setosa           4.6         3.1          1.5         0.2
##  5 setosa           5           3.6          1.4         0.2
##  6 setosa           5.4         3.9          1.7         0.4
##  7 setosa           4.6         3.4          1.4         0.3
##  8 setosa           5           3.4          1.5         0.2
##  9 setosa           4.4         2.9          1.4         0.2
## 10 setosa           4.9         3.1          1.5         0.1
## # … with 140 more rows

starts_with()

select(iris, starts_with("Petal")) 

## # A tibble: 150 x 2
##    Petal.Length Petal.Width
##           <dbl>       <dbl>
##  1          1.4         0.2
##  2          1.4         0.2
##  3          1.3         0.2
##  4          1.5         0.2
##  5          1.4         0.2
##  6          1.7         0.4
##  7          1.4         0.3
##  8          1.5         0.2
##  9          1.4         0.2
## 10          1.5         0.1
## # … with 140 more rows

ends_with()

select(iris, ends_with("Length")) 

## # A tibble: 150 x 2
##    Sepal.Length Petal.Length
##           <dbl>        <dbl>
##  1          5.1          1.4
##  2          4.9          1.4
##  3          4.7          1.3
##  4          4.6          1.5
##  5          5            1.4
##  6          5.4          1.7
##  7          4.6          1.4
##  8          5            1.5
##  9          4.4          1.4
## 10          4.9          1.5
## # … with 140 more rows

contains()

Searches column names for a specified string

select(iris, contains("Wid")) 

## # A tibble: 150 x 2
##    Sepal.Width Petal.Width
##          <dbl>       <dbl>
##  1         3.5         0.2
##  2         3           0.2
##  3         3.2         0.2
##  4         3.1         0.2
##  5         3.6         0.2
##  6         3.9         0.4
##  7         3.4         0.3
##  8         3.4         0.2
##  9         2.9         0.2
## 10         3.1         0.1
## # … with 140 more rows

matches()

Searches column names for a specified regular expression

select(iris, matches("[t]")) 

## # A tibble: 150 x 4
##    Sepal.Length Sepal.Width Petal.Length Petal.Width
##           <dbl>       <dbl>        <dbl>       <dbl>
##  1          5.1         3.5          1.4         0.2
##  2          4.9         3            1.4         0.2
##  3          4.7         3.2          1.3         0.2
##  4          4.6         3.1          1.5         0.2
##  5          5           3.6          1.4         0.2
##  6          5.4         3.9          1.7         0.4
##  7          4.6         3.4          1.4         0.3
##  8          5           3.4          1.5         0.2
##  9          4.4         2.9          1.4         0.2
## 10          4.9         3.1          1.5         0.1
## # … with 140 more rows
For more info on regex see here :

Fancy verbs

Scoped verbs end in _at(), _if() and _all() signifying the function should be applied too all variables, only at certain variables, or only if variables meet a certain condition.

ie. mutate_at(), mutate_if(), mutate_all(), summarise_if(), summarise_at(), summarise_all(), select_if(), select_at(), rename_if(), filter_all(), arrange_all(), group_by_at() …the list goes on!

Take the additional arguments .predicate, .funs, and .vars

A few examples (we will see more later)

iris %>% select_if(.predicate = is.numeric)

## # A tibble: 150 x 4
##    Sepal.Length Sepal.Width Petal.Length Petal.Width
##           <dbl>       <dbl>        <dbl>       <dbl>
##  1          5.1         3.5          1.4         0.2
##  2          4.9         3            1.4         0.2
##  3          4.7         3.2          1.3         0.2
##  4          4.6         3.1          1.5         0.2
##  5          5           3.6          1.4         0.2
##  6          5.4         3.9          1.7         0.4
##  7          4.6         3.4          1.4         0.3
##  8          5           3.4          1.5         0.2
##  9          4.4         2.9          1.4         0.2
## 10          4.9         3.1          1.5         0.1
## # … with 140 more rows
…
