Data Wrangling with dplyr | KHstats
…
meds %>%
    group_by(PatientID) %>%
    complete(Months_ImplantToVisit = full_seq(1:max(Months_ImplantToVisit), 1)) %>%
    fill(ends_with("_yn")) %>%
    fill(ends_with("_yn"), .direction="up") -> meds1
meds1

## # A tibble: 21 x 5
## # Groups:   PatientID [3]
##    PatientID Months_ImplantToVisit BB_yn ACE_yn ARB_yn
##        <int>                 <dbl> <fct> <fct>  <fct> 
##  1         1                     1 0     0      0     
##  2         1                     2 0     0      0     
##  3         2                     1 0     1      0     
##  4         2                     2 0     1      0     
##  5         2                     3 0     1      0     
##  6         2                     4 0     1      0     
##  7         2                     5 0     1      0     
##  8         2                     6 1     1      0     
##  9         2                     7 1     1      0     
## 10         2                     8 1     1      0     
## # … with 11 more rows
…
dems_int # look at the intermediate output

## Source: local data frame [265 x 8]
## Groups: <by row>
## 
## # A tibble: 265 x 8
##    Days.to.lastFU Days.to.death Days.to.stroke Days.to.GIB Days.to.PT
##             <dbl>         <dbl>          <dbl>       <dbl>      <dbl>
##  1             98            98             94         Inf        Inf
##  2            163           Inf            Inf         Inf        141
##  3            185           Inf            Inf         Inf        Inf
##  4            139           Inf            Inf         Inf        Inf
##  5            196           Inf            Inf          78        Inf
##  6            161           Inf            Inf         Inf        Inf
##  7            210           Inf            185         Inf        Inf
##  8            233           Inf            Inf         Inf        Inf
##  9            239           Inf            Inf         Inf        Inf
## 10            243           Inf            Inf         Inf        Inf
## # … with 255 more rows, and 3 more variables: FUorFEtime <dbl>,
## #   FUorFEstatus <int>, Event_yn <dbl>
…
