Tips and Tricks from the New York R Conference | KHstats
…
Emily Robinson’s accessible instructions for how to make a package with usethis

Jaqueline Nolis’ really funny talk on how neural nets aren’t actually hard at all

Andrew Gelman’s discussion on “solving all your statistical problems with p-values” (but he’s a Bayesian, ha ha)

A bonus!

This was not from the New York R Conference but I saw it on Twitter while making this presentation for my computing club and I really enjoyed it…

#install.packages("genius")
library(genius)
genius_lyrics("the beatles", "hey jude")

## # A tibble: 53 x 3
##    track_title  line lyric                                           
##    <chr>       <int> <chr>                                           
##  1 Hey Jude        1 Hey Jude, don't make it bad                     
##  2 Hey Jude        2 Take a sad song and make it better              
##  3 Hey Jude        3 Remember to let her into your heart             
##  4 Hey Jude        4 Then you can start to make it better            
##  5 Hey Jude        5 Hey Jude, don't be afraid                       
##  6 Hey Jude        6 You were made to go out and get her             
##  7 Hey Jude        7 The minute you let her under your skin          
##  8 Hey Jude        8 Then you begin to make it better                
##  9 Hey Jude        9 And anytime you feel the pain, hey Jude, refrain
## 10 Hey Jude       10 Don't carry the world upon your shoulders       
## # … with 43 more rows
…
